waveform.vcd
$date
	Wed Apr 23 19:25:25 2025
$end
$version
	Icarus Verilog
$end
$timescale
	1ps
$end
$scope module tb_tinyriscv $end
$var reg 1 ! clk $end
$var reg 1 " rst $end
$scope module uut $end
$var wire 1 ! clk $end
$var wire 1 " rst $end
$var wire 1 # wb_reg_we_o $end
$var wire 32 $ wb_reg_wdata_o [31:0] $end
$var wire 5 % wb_reg_waddr_o [4:0] $end
$var wire 1 & rst_if_id_o $end
$var wire 32 ' regs_rdata2_o [31:0] $end
$var wire 32 ( regs_rdata1_o [31:0] $end
$var wire 32 ) pc_pc_o [31:0] $end
$var wire 1 * mc_reg_we_o $end
$var wire 32 + mc_reg_wdata_o [31:0] $end
$var wire 5 , mc_reg_waddr_o [4:0] $end
$var wire 1 - mc_mem_we_o $end
$var wire 32 . mc_mem_wdata_o [31:0] $end
$var wire 32 / mc_mem_waddr_o [31:0] $end
$var wire 1 0 mc_mem_req_o $end
$var wire 32 1 mc_mem_raddr_o [31:0] $end
$var wire 1 2 jump_flag_o $end
$var wire 1 3 jump_flag $end
$var wire 32 4 jump_addr_o [31:0] $end
$var wire 32 5 jump_addr [31:0] $end
$var wire 32 6 inst_mem_inst_o [31:0] $end
$var wire 32 7 if_inst_o [31:0] $end
$var wire 32 8 if_inst_addr_o [31:0] $end
$var wire 1 9 ie_reg_we_o $end
$var wire 5 : ie_reg_waddr_o [4:0] $end
$var wire 32 ; ie_reg2_rdata_o [31:0] $end
$var wire 32 < ie_reg1_rdata_o [31:0] $end
$var wire 32 = ie_op2_o [31:0] $end
$var wire 32 > ie_op2_jump_o [31:0] $end
$var wire 32 ? ie_op1_o [31:0] $end
$var wire 32 @ ie_op1_jump_o [31:0] $end
$var wire 32 A ie_inst_o [31:0] $end
$var wire 32 B ie_inst_addr_o [31:0] $end
$var wire 1 C id_reg_we_o $end
$var wire 5 D id_reg_waddr_o [4:0] $end
$var wire 32 E id_reg2_rdata_o [31:0] $end
$var wire 5 F id_reg2_raddr_o [4:0] $end
$var wire 32 G id_reg1_rdata_o [31:0] $end
$var wire 5 H id_reg1_raddr_o [4:0] $end
$var wire 32 I id_op2_o [31:0] $end
$var wire 32 J id_op2_jump_o [31:0] $end
$var wire 32 K id_op1_o [31:0] $end
$var wire 32 L id_op1_jump_o [31:0] $end
$var wire 32 M id_inst_o [31:0] $end
$var wire 32 N id_inst_addr_o [31:0] $end
$var wire 1 O em_reg_we_o $end
$var wire 32 P em_reg_wdata_o [31:0] $end
$var wire 5 Q em_reg_waddr_o [4:0] $end
$var wire 32 R em_reg2_rdata_o [31:0] $end
$var wire 32 S em_op1_add_op2_res_o [31:0] $end
$var wire 2 T em_mem_waddr_index_o [1:0] $end
$var wire 2 U em_mem_raddr_index_o [1:0] $end
$var wire 32 V em_inst_o [31:0] $end
$var wire 32 W em_inst_addr_o [31:0] $end
$var wire 32 X data_mem_rdata_o [31:0] $end
$var wire 1 Y alu_reg_we_o $end
$var wire 32 Z alu_reg_wdata_o [31:0] $end
$var wire 5 [ alu_reg_waddr_o [4:0] $end
$var wire 32 \ alu_reg2_rdata_o [31:0] $end
$var wire 32 ] alu_op1_add_op2_res_o [31:0] $end
$var wire 2 ^ alu_mem_waddr_index_o [1:0] $end
$var wire 2 _ alu_mem_raddr_index_o [1:0] $end
$var wire 32 ` alu_inst_o [31:0] $end
$var wire 32 a alu_inst_addr_o [31:0] $end
$scope module u_alu $end
$var wire 32 b inst_addr_o [31:0] $end
$var wire 32 c inst_o [31:0] $end
$var wire 1 d mem_req_o $end
$var wire 1 e mem_we_o $end
$var wire 32 f reg2_rdata_o [31:0] $end
$var wire 5 g reg_waddr_o [4:0] $end
$var wire 32 h reg_wdata_o [31:0] $end
$var wire 1 Y reg_we_o $end
$var wire 1 i rst $end
$var wire 5 j uimm [4:0] $end
$var wire 32 k sri_shift_mask [31:0] $end
$var wire 32 l sri_shift [31:0] $end
$var wire 32 m sr_shift_mask [31:0] $end
$var wire 32 n sr_shift [31:0] $end
$var wire 1 9 reg_we_i $end
$var wire 5 o reg_waddr_i [4:0] $end
$var wire 32 p reg2_rdata_i [31:0] $end
$var wire 32 q reg2_data_invert [31:0] $end
$var wire 32 r reg1_rdata_i [31:0] $end
$var wire 32 s reg1_data_invert [31:0] $end
$var wire 5 t rd [4:0] $end
$var wire 7 u opcode [6:0] $end
$var wire 32 v op2_jump_i [31:0] $end
$var wire 32 w op2_i [31:0] $end
$var wire 32 x op1_jump_i [31:0] $end
$var wire 32 y op1_jump_add_op2_jump_res [31:0] $end
$var wire 32 z op1_i [31:0] $end
$var wire 1 { op1_ge_op2_unsigned $end
$var wire 1 | op1_ge_op2_signed $end
$var wire 1 } op1_eq_op2 $end
$var wire 32 ~ op1_add_op2_res [31:0] $end
$var wire 2 !" mem_waddr_index [1:0] $end
$var wire 2 "" mem_raddr_index [1:0] $end
$var wire 32 #" inst_i [31:0] $end
$var wire 32 $" inst_addr_i [31:0] $end
$var wire 7 %" funct7 [6:0] $end
$var wire 3 &" funct3 [2:0] $end
$var reg 32 '" mem_raddr_o [31:0] $end
$var reg 1 (" mem_req $end
$var reg 32 )" mem_waddr_o [31:0] $end
$var reg 32 *" mem_wdata_o [31:0] $end
$var reg 1 +" mem_we $end
$var reg 5 ," reg_waddr [4:0] $end
$var reg 32 -" reg_wdata [31:0] $end
$var reg 1 ." reg_we $end
$upscope $end
$scope module u_ctrl $end
$var wire 1 " rst $end
$var wire 1 3 jump_flag_i $end
$var wire 32 /" jump_addr_i [31:0] $end
$var reg 32 0" jump_addr_o [31:0] $end
$var reg 1 2 jump_flag_o $end
$var reg 1 & rst_if_id $end
$upscope $end
$scope module u_data_mem $end
$var wire 1 ! clk $end
$var wire 1 " rst $end
$var wire 1 - mem_we_i $end
$var wire 32 1" mem_wdata_i [31:0] $end
$var wire 32 2" mem_waddr_i [31:0] $end
$var wire 1 0 mem_req_i $end
$var wire 32 3" mem_raddr_i [31:0] $end
$var reg 32 4" mem_rdata_o [31:0] $end
$upscope $end
$scope module u_ex_mem $end
$var wire 1 ! clk $end
$var wire 32 5" inst_addr_i [31:0] $end
$var wire 32 6" inst_i [31:0] $end
$var wire 2 7" mem_raddr_index_i [1:0] $end
$var wire 2 8" mem_waddr_index_i [1:0] $end
$var wire 32 9" op1_add_op2_res_i [31:0] $end
$var wire 32 :" reg2_rdata_i [31:0] $end
$var wire 5 ;" reg_waddr_i [4:0] $end
$var wire 32 <" reg_wdata_i [31:0] $end
$var wire 1 Y reg_we_i $end
$var wire 1 " rst $end
$var reg 32 =" inst_addr_o [31:0] $end
$var reg 32 >" inst_o [31:0] $end
$var reg 2 ?" mem_raddr_index_o [1:0] $end
$var reg 2 @" mem_waddr_index_o [1:0] $end
$var reg 32 A" op1_add_op2_res_o [31:0] $end
$var reg 32 B" reg2_rdata_o [31:0] $end
$var reg 5 C" reg_waddr_o [4:0] $end
$var reg 32 D" reg_wdata_o [31:0] $end
$var reg 1 O reg_we_o $end
$upscope $end
$scope module u_id $end
$var wire 1 " rst $end
$var wire 5 E" rs2 [4:0] $end
$var wire 5 F" rs1 [4:0] $end
$var wire 32 G" reg2_rdata_i [31:0] $end
$var wire 32 H" reg1_rdata_i [31:0] $end
$var wire 5 I" rd [4:0] $end
$var wire 7 J" opcode [6:0] $end
$var wire 32 K" op1_jump_add_op2_jump_res [31:0] $end
$var wire 1 L" op1_ge_op2_unsigned $end
$var wire 1 M" op1_ge_op2_signed $end
$var wire 1 N" op1_eq_op2 $end
$var wire 32 O" op1_add_op2_res [31:0] $end
$var wire 32 P" inst_i [31:0] $end
$var wire 32 Q" inst_addr_i [31:0] $end
$var wire 7 R" funct7 [6:0] $end
$var wire 3 S" funct3 [2:0] $end
$var reg 32 T" inst_addr_o [31:0] $end
$var reg 32 U" inst_o [31:0] $end
$var reg 32 V" jump_addr [31:0] $end
$var reg 1 3 jump_flag $end
$var reg 32 W" op1_jump_o [31:0] $end
$var reg 32 X" op1_o [31:0] $end
$var reg 32 Y" op2_jump_o [31:0] $end
$var reg 32 Z" op2_o [31:0] $end
$var reg 5 [" reg1_raddr_o [4:0] $end
$var reg 32 \" reg1_rdata_o [31:0] $end
$var reg 5 ]" reg2_raddr_o [4:0] $end
$var reg 32 ^" reg2_rdata_o [31:0] $end
$var reg 5 _" reg_waddr_o [4:0] $end
$var reg 1 C reg_we_o $end
$upscope $end
$scope module u_id_ex $end
$var wire 1 ! clk $end
$var wire 3 `" hold_flag_i [2:0] $end
$var wire 32 a" inst_addr_i [31:0] $end
$var wire 32 b" inst_addr_o [31:0] $end
$var wire 32 c" inst_i [31:0] $end
$var wire 32 d" inst_o [31:0] $end
$var wire 32 e" op1_i [31:0] $end
$var wire 32 f" op1_jump_i [31:0] $end
$var wire 32 g" op1_jump_o [31:0] $end
$var wire 32 h" op1_o [31:0] $end
$var wire 32 i" op2_i [31:0] $end
$var wire 32 j" op2_jump_i [31:0] $end
$var wire 32 k" op2_jump_o [31:0] $end
$var wire 32 l" op2_o [31:0] $end
$var wire 32 m" reg1_rdata_i [31:0] $end
$var wire 32 n" reg1_rdata_o [31:0] $end
$var wire 32 o" reg2_rdata_i [31:0] $end
$var wire 32 p" reg2_rdata_o [31:0] $end
$var wire 5 q" reg_waddr_i [4:0] $end
$var wire 5 r" reg_waddr_o [4:0] $end
$var wire 1 C reg_we_i $end
$var wire 1 9 reg_we_o $end
$var wire 1 " rst $end
$var wire 1 s" reg_we $end
$var wire 5 t" reg_waddr [4:0] $end
$var wire 32 u" reg2_rdata [31:0] $end
$var wire 32 v" reg1_rdata [31:0] $end
$var wire 32 w" op2_jump [31:0] $end
$var wire 32 x" op2 [31:0] $end
$var wire 32 y" op1_jump [31:0] $end
$var wire 32 z" op1 [31:0] $end
$var wire 32 {" inst_addr [31:0] $end
$var wire 32 |" inst [31:0] $end
$var wire 1 }" hold_en $end
$scope module inst_addr_ff $end
$var wire 1 ! clk $end
$var wire 32 ~" def_val [31:0] $end
$var wire 32 !# din [31:0] $end
$var wire 1 }" hold_en $end
$var wire 1 " rst $end
$var wire 32 "# qout [31:0] $end
$var reg 32 ## qout_r [31:0] $end
$upscope $end
$scope module inst_ff $end
$var wire 1 ! clk $end
$var wire 32 $# def_val [31:0] $end
$var wire 32 %# din [31:0] $end
$var wire 1 }" hold_en $end
$var wire 1 " rst $end
$var wire 32 &# qout [31:0] $end
$var reg 32 '# qout_r [31:0] $end
$upscope $end
$scope module op1_ff $end
$var wire 1 ! clk $end
$var wire 32 (# def_val [31:0] $end
$var wire 32 )# din [31:0] $end
$var wire 1 }" hold_en $end
$var wire 1 " rst $end
$var wire 32 *# qout [31:0] $end
$var reg 32 +# qout_r [31:0] $end
$upscope $end
$scope module op1_jump_ff $end
$var wire 1 ! clk $end
$var wire 32 ,# def_val [31:0] $end
$var wire 32 -# din [31:0] $end
$var wire 1 }" hold_en $end
$var wire 1 " rst $end
$var wire 32 .# qout [31:0] $end
$var reg 32 /# qout_r [31:0] $end
$upscope $end
$scope module op2_ff $end
$var wire 1 ! clk $end
$var wire 32 0# def_val [31:0] $end
$var wire 32 1# din [31:0] $end
$var wire 1 }" hold_en $end
$var wire 1 " rst $end
$var wire 32 2# qout [31:0] $end
$var reg 32 3# qout_r [31:0] $end
$upscope $end
$scope module op2_jump_ff $end
$var wire 1 ! clk $end
$var wire 32 4# def_val [31:0] $end
$var wire 32 5# din [31:0] $end
$var wire 1 }" hold_en $end
$var wire 1 " rst $end
$var wire 32 6# qout [31:0] $end
$var reg 32 7# qout_r [31:0] $end
$upscope $end
$scope module reg1_rdata_ff $end
$var wire 1 ! clk $end
$var wire 32 8# def_val [31:0] $end
$var wire 32 9# din [31:0] $end
$var wire 1 }" hold_en $end
$var wire 1 " rst $end
$var wire 32 :# qout [31:0] $end
$var reg 32 ;# qout_r [31:0] $end
$upscope $end
$scope module reg2_rdata_ff $end
$var wire 1 ! clk $end
$var wire 32 <# def_val [31:0] $end
$var wire 32 =# din [31:0] $end
$var wire 1 }" hold_en $end
$var wire 1 " rst $end
$var wire 32 ># qout [31:0] $end
$var reg 32 ?# qout_r [31:0] $end
$upscope $end
$scope module reg_waddr_ff $end
$var wire 1 ! clk $end
$var wire 5 @# def_val [4:0] $end
$var wire 5 A# din [4:0] $end
$var wire 1 }" hold_en $end
$var wire 1 " rst $end
$var wire 5 B# qout [4:0] $end
$var reg 5 C# qout_r [4:0] $end
$upscope $end
$scope module reg_we_ff $end
$var wire 1 ! clk $end
$var wire 1 D# def_val $end
$var wire 1 C din $end
$var wire 1 }" hold_en $end
$var wire 1 " rst $end
$var wire 1 s" qout $end
$var reg 1 s" qout_r $end
$upscope $end
$upscope $end
$scope module u_if_id $end
$var wire 1 ! clk $end
$var wire 32 E# inst_addr_o [31:0] $end
$var wire 32 F# inst_o [31:0] $end
$var wire 1 " rst $end
$var wire 1 & rst_if_id_i $end
$var wire 32 G# inst_i [31:0] $end
$var wire 32 H# inst_addr_i [31:0] $end
$var wire 32 I# inst_addr [31:0] $end
$var wire 32 J# inst [31:0] $end
$scope module inst_addr_ff $end
$var wire 1 ! clk $end
$var wire 32 K# def_val [31:0] $end
$var wire 1 & hold_en $end
$var wire 1 " rst $end
$var wire 32 L# qout [31:0] $end
$var wire 32 M# din [31:0] $end
$var reg 32 N# qout_r [31:0] $end
$upscope $end
$scope module inst_ff $end
$var wire 1 ! clk $end
$var wire 32 O# def_val [31:0] $end
$var wire 1 & hold_en $end
$var wire 1 " rst $end
$var wire 32 P# qout [31:0] $end
$var wire 32 Q# din [31:0] $end
$var reg 32 R# qout_r [31:0] $end
$upscope $end
$upscope $end
$scope module u_instruction_mem $end
$var wire 32 S# address_i [31:0] $end
$var reg 32 T# instruction_o [31:0] $end
$upscope $end
$scope module u_mem_ctrl $end
$var wire 32 U# inst_addr_i [31:0] $end
$var wire 32 V# inst_i [31:0] $end
$var wire 2 W# mem_raddr_index [1:0] $end
$var wire 32 X# mem_rdata_i [31:0] $end
$var wire 1 0 mem_req_o $end
$var wire 2 Y# mem_waddr_index [1:0] $end
$var wire 1 - mem_we_o $end
$var wire 32 Z# op1_add_op2_res [31:0] $end
$var wire 32 [# reg2_rdata_i [31:0] $end
$var wire 5 \# reg_waddr_i [4:0] $end
$var wire 5 ]# reg_waddr_o [4:0] $end
$var wire 32 ^# reg_wdata_i [31:0] $end
$var wire 1 O reg_we_i $end
$var wire 1 * reg_we_o $end
$var wire 1 " rst $end
$var wire 5 _# uimm [4:0] $end
$var wire 5 `# rd [4:0] $end
$var wire 7 a# opcode [6:0] $end
$var wire 7 b# funct7 [6:0] $end
$var wire 3 c# funct3 [2:0] $end
$var reg 32 d# mem_raddr_o [31:0] $end
$var reg 1 e# mem_req $end
$var reg 32 f# mem_waddr_o [31:0] $end
$var reg 32 g# mem_wdata_o [31:0] $end
$var reg 1 h# mem_we $end
$var reg 32 i# reg_wdata [31:0] $end
$var reg 32 j# reg_wdata_o [31:0] $end
$upscope $end
$scope module u_mem_wb $end
$var wire 1 ! clk $end
$var wire 5 k# reg_waddr_i [4:0] $end
$var wire 32 l# reg_wdata_i [31:0] $end
$var wire 1 * reg_we_i $end
$var wire 1 " rst $end
$var reg 5 m# reg_waddr_o [4:0] $end
$var reg 32 n# reg_wdata_o [31:0] $end
$var reg 1 # reg_we_o $end
$upscope $end
$scope module u_pc_reg $end
$var wire 1 ! clk $end
$var wire 3 o# hold_flag_i [2:0] $end
$var wire 32 p# jump_addr_i [31:0] $end
$var wire 1 2 jump_flag_i $end
$var wire 1 " rst $end
$var reg 32 q# pc_o [31:0] $end
$upscope $end
$scope module u_regs $end
$var wire 1 ! clk $end
$var wire 5 r# raddr1_i [4:0] $end
$var wire 5 s# raddr2_i [4:0] $end
$var wire 1 " rst $end
$var wire 5 t# waddr_i [4:0] $end
$var wire 32 u# wdata_i [31:0] $end
$var wire 1 # we_i $end
$var reg 32 v# rdata1_o [31:0] $end
$var reg 32 w# rdata2_o [31:0] $end
$scope begin reg_debug[0] $end
$var wire 32 x# reg_i [31:0] $end
$upscope $end
$scope begin reg_debug[1] $end
$var wire 32 y# reg_i [31:0] $end
$upscope $end
$scope begin reg_debug[2] $end
$var wire 32 z# reg_i [31:0] $end
$upscope $end
$scope begin reg_debug[3] $end
$var wire 32 {# reg_i [31:0] $end
$upscope $end
$scope begin reg_debug[4] $end
$var wire 32 |# reg_i [31:0] $end
$upscope $end
$scope begin reg_debug[5] $end
$var wire 32 }# reg_i [31:0] $end
$upscope $end
$scope begin reg_debug[6] $end
$var wire 32 ~# reg_i [31:0] $end
$upscope $end
$scope begin reg_debug[7] $end
$var wire 32 !$ reg_i [31:0] $end
$upscope $end
$scope begin reg_debug[8] $end
$var wire 32 "$ reg_i [31:0] $end
$upscope $end
$scope begin reg_debug[9] $end
$var wire 32 #$ reg_i [31:0] $end
$upscope $end
$scope begin reg_debug[10] $end
$var wire 32 $$ reg_i [31:0] $end
$upscope $end
$scope begin reg_debug[11] $end
$var wire 32 %$ reg_i [31:0] $end
$upscope $end
$scope begin reg_debug[12] $end
$var wire 32 &$ reg_i [31:0] $end
$upscope $end
$scope begin reg_debug[13] $end
$var wire 32 '$ reg_i [31:0] $end
$upscope $end
$scope begin reg_debug[14] $end
$var wire 32 ($ reg_i [31:0] $end
$upscope $end
$scope begin reg_debug[15] $end
$var wire 32 )$ reg_i [31:0] $end
$upscope $end
$scope begin reg_debug[16] $end
$var wire 32 *$ reg_i [31:0] $end
$upscope $end
$scope begin reg_debug[17] $end
$var wire 32 +$ reg_i [31:0] $end
$upscope $end
$scope begin reg_debug[18] $end
$var wire 32 ,$ reg_i [31:0] $end
$upscope $end
$scope begin reg_debug[19] $end
$var wire 32 -$ reg_i [31:0] $end
$upscope $end
$scope begin reg_debug[20] $end
$var wire 32 .$ reg_i [31:0] $end
$upscope $end
$scope begin reg_debug[21] $end
$var wire 32 /$ reg_i [31:0] $end
$upscope $end
$scope begin reg_debug[22] $end
$var wire 32 0$ reg_i [31:0] $end
$upscope $end
$scope begin reg_debug[23] $end
$var wire 32 1$ reg_i [31:0] $end
$upscope $end
$scope begin reg_debug[24] $end
$var wire 32 2$ reg_i [31:0] $end
$upscope $end
$scope begin reg_debug[25] $end
$var wire 32 3$ reg_i [31:0] $end
$upscope $end
$scope begin reg_debug[26] $end
$var wire 32 4$ reg_i [31:0] $end
$upscope $end
$scope begin reg_debug[27] $end
$var wire 32 5$ reg_i [31:0] $end
$upscope $end
$scope begin reg_debug[28] $end
$var wire 32 6$ reg_i [31:0] $end
$upscope $end
$scope begin reg_debug[29] $end
$var wire 32 7$ reg_i [31:0] $end
$upscope $end
$scope begin reg_debug[30] $end
$var wire 32 8$ reg_i [31:0] $end
$upscope $end
$scope begin reg_debug[31] $end
$var wire 32 9$ reg_i [31:0] $end
$upscope $end
$upscope $end
$upscope $end
$upscope $end
$enddefinitions $end
#0
$dumpvars
bx 9$
bx 8$
bx 7$
bx 6$
bx 5$
bx 4$
bx 3$
bx 2$
bx 1$
bx 0$
bx /$
bx .$
bx -$
bx ,$
bx +$
bx *$
bx )$
bx ($
bx '$
bx &$
bx %$
bx $$
bx #$
bx "$
bx !$
bx ~#
bx }#
bx |#
bx {#
bx z#
bx y#
bx x#
bx w#
bx v#
bx u#
bx t#
bx s#
bx r#
bx q#
bx p#
bz o#
bx n#
bx m#
bx l#
bx k#
bx j#
b0 i#
0h#
b0 g#
b0 f#
0e#
b0 d#
bx c#
bx b#
bx a#
bx `#
bx _#
bx ^#
bx ]#
bx \#
bx [#
bx Z#
bx Y#
bz X#
bx W#
bx V#
bx U#
bx T#
bx S#
bx R#
bx Q#
bx P#
b1 O#
bx N#
bx M#
bx L#
b0 K#
bx J#
bx I#
bx H#
bx G#
bx F#
bx E#
0D#
bx C#
bx B#
bx A#
b0 @#
bx ?#
bx >#
bx =#
b0 <#
bx ;#
bx :#
bx 9#
b0 8#
bx 7#
bx 6#
bx 5#
b0 4#
bx 3#
bx 2#
bx 1#
b0 0#
bx /#
bx .#
bx -#
b0 ,#
bx +#
bx *#
bx )#
b0 (#
bx '#
bx &#
bx %#
b1 $#
bx ##
bx "#
bx !#
b0 ~"
x}"
bx |"
bx {"
bx z"
bx y"
bx x"
bx w"
bx v"
bx u"
bx t"
xs"
bx r"
bx q"
bx p"
bx o"
bx n"
bx m"
bx l"
bx k"
bx j"
bx i"
bx h"
bx g"
bx f"
bx e"
bx d"
bx c"
bx b"
bx a"
bz `"
bx _"
bx ^"
bx ]"
bx \"
bx ["
bx Z"
bx Y"
bx X"
bx W"
bx V"
bx U"
bx T"
bx S"
bx R"
bx Q"
bx P"
bx O"
xN"
xM"
xL"
bx K"
bx J"
bx I"
bx H"
bx G"
bx F"
bx E"
bx D"
bx C"
bx B"
bx A"
bx @"
bx ?"
bx >"
bx ="
bx <"
bx ;"
bx :"
bx 9"
bx 8"
bx 7"
bx 6"
bx 5"
b0 4"
b0 3"
b0 2"
b0 1"
bx 0"
bx /"
x."
bx -"
bx ,"
x+"
bx *"
bx )"
x("
bx '"
bx &"
bx %"
bx $"
bx #"
bx ""
bx !"
bx ~
x}
x|
x{
bx z
bx y
bx x
bx w
bx v
bx u
bx t
bx s
bx r
bx q
bx p
bx o
bx n
bx m
bx l
bx k
bx j
zi
bx h
bx g
bx f
xe
xd
bx c
bx b
bx a
bx `
bx _
bx ^
bx ]
bx \
bx [
bx Z
xY
b0 X
bx W
bx V
bx U
bx T
bx S
bx R
bx Q
bx P
xO
bx N
bx M
bx L
bx K
bx J
bx I
bx H
bx G
bx F
bx E
bx D
xC
bx B
bx A
bx @
bx ?
bx >
bx =
bx <
bx ;
bx :
x9
bx 8
bx 7
bx 6
bx 5
bx 4
x3
x2
b0 1
00
b0 /
b0 .
0-
bx ,
bx +
x*
bx )
bx (
bx '
x&
bx %
bx $
x#
0"
0!
$end
#5000
0&
02
b0 4
b0 0"
b0 p#
b0 ^
b0 !"
b0 8"
b0 _
b0 ""
b0 7"
b0 E
b0 ^"
b0 o"
b0 =#
b0 G
b0 \"
b0 m"
b0 9#
b0 '
b0 G"
b0 w#
b0 (
b0 H"
b0 v#
b0 5
b0 /"
b0 V"
03
b10010011 6
b10010011 G#
b10010011 Q#
b10010011 T#
b0 E"
b0 F"
b0 I"
b0 R"
b0 S"
b1 J"
b0 F
b0 ]"
b0 s#
b0 H
b0 ["
b0 r#
b0 D
b0 _"
b0 q"
b0 A#
0C
b0 K"
b0 J
b0 Y"
b0 j"
b0 5#
b0 L
b0 W"
b0 f"
b0 -#
b0 I
b0 Z"
b0 i"
b0 1#
b0 N
b0 T"
b0 a"
b0 !#
b1 M
b1 U"
b1 c"
b1 %#
b11111111111111111111111111111111 k
b0 l
b0 j
b0 t
b0 %"
b0 &"
b1 u
b0 s
b11111111111111111111111111111111 m
b0 n
b0 q
b0 Z
b0 h
b0 <"
b0 -"
0e
0+"
b0 )"
b0 '"
b0 *"
0d
0("
b0 [
b0 g
b0 ;"
b0 ,"
0Y
0."
b0 )
b0 H#
b0 M#
b0 S#
b0 q#
b1 7
b1 P"
b1 F#
b1 J#
b1 P#
b1 R#
b0 8
b0 Q"
b0 E#
b0 I#
b0 L#
b0 N#
b1 `
b1 c
b1 6"
b1 A
b1 #"
b1 d"
b1 |"
b1 &#
b1 '#
b0 a
b0 b
b0 5"
b0 B
b0 $"
b0 b"
b0 {"
b0 "#
b0 ##
09
0s"
b0 :
b0 o
b0 r"
b0 t"
b0 B#
b0 C#
b0 <
b0 r
b0 n"
b0 v"
b0 :#
b0 ;#
b0 \
b0 f
b0 :"
b0 ;
b0 p
b0 p"
b0 u"
b0 >#
b0 ?#
1}
1{
1|
b0 ]
b0 ~
b0 9"
b0 ?
b0 z
b0 h"
b0 z"
b0 *#
b0 +#
b0 =
b0 w
b0 l"
b0 x"
b0 2#
b0 3#
b0 y
b0 @
b0 x
b0 g"
b0 y"
b0 .#
b0 /#
b0 >
b0 v
b0 k"
b0 w"
b0 6#
b0 7#
1!
#10000
0!
#15000
b0 +
b0 j#
b0 l#
b1 a#
b0 c#
b0 b#
b0 `#
b0 _#
b0 R
b0 B"
b0 [#
b0 T
b0 @"
b0 Y#
b0 U
b0 ?"
b0 W#
b0 S
b0 A"
b0 Z#
b0 ,
b0 ]#
b0 k#
b0 Q
b0 C"
b0 \#
0*
0O
b0 P
b0 D"
b0 ^#
b0 W
b0 ="
b0 U#
b1 V
b1 >"
b1 V#
1!
#20000
b0 %
b0 m#
b0 t#
0#
b0 $
b0 n#
b0 u#
0!
1"
#25000
b0 O"
1M"
1L"
1N"
b0 K
b0 X"
b0 e"
b0 )#
b1 D
b1 _"
b1 q"
b1 A#
1C
b101000000000000100010011 6
b101000000000000100010011 G#
b101000000000000100010011 Q#
b101000000000000100010011 T#
b1 I"
b10011 J"
b10010011 M
b10010011 U"
b10010011 c"
b10010011 %#
b100 )
b100 H#
b100 M#
b100 S#
b100 q#
b10010011 7
b10010011 P"
b10010011 F#
b10010011 J#
b10010011 P#
b10010011 R#
x}
x{
x|
bx ]
bx ~
bx 9"
bx ?
bx z
bx h"
bx z"
bx *#
bx +#
1!
#30000
0!
#35000
b1 ^
b1 !"
b1 8"
b10 D
b10 _"
b10 q"
b10 A#
b1 t
b10011 u
b1 [
b1 g
b1 ;"
b1 ,"
1Y
1."
b1010 E"
b10 I"
b1010 O"
0M"
0L"
0N"
b1010 I
b1010 Z"
b1010 i"
b1010 1#
b100 N
b100 T"
b100 a"
b100 !#
b101000000000000100010011 M
b101000000000000100010011 U"
b101000000000000100010011 c"
b101000000000000100010011 %#
b1010000000000000110010011 6
b1010000000000000110010011 G#
b1010000000000000110010011 Q#
b1010000000000000110010011 T#
1}
1{
1|
b0 ]
b0 ~
b0 9"
b0 ?
b0 z
b0 h"
b0 z"
b0 *#
b0 +#
b1 :
b1 o
b1 r"
b1 t"
b1 B#
b1 C#
19
1s"
b10010011 `
b10010011 c
b10010011 6"
b10010011 A
b10010011 #"
b10010011 d"
b10010011 |"
b10010011 &#
b10010011 '#
b100 8
b100 Q"
b100 E#
b100 I#
b100 L#
b100 N#
b101000000000000100010011 7
b101000000000000100010011 P"
b101000000000000100010011 F#
b101000000000000100010011 J#
b101000000000000100010011 P#
b101000000000000100010011 R#
b1000 )
b1000 H#
b1000 M#
b1000 S#
b1000 q#
1!
#40000
0!
#45000
b10 ^
b10 !"
b10 8"
b10 _
b10 ""
b10 7"
b11 D
b11 _"
b11 q"
b11 A#
b1100010000001000110011 6
b1100010000001000110011 G#
b1100010000001000110011 Q#
b1100010000001000110011 T#
b10100 E"
b11 I"
b10100 O"
0M"
0L"
0N"
b10100 I
b10100 Z"
b10100 i"
b10100 1#
b1000 N
b1000 T"
b1000 a"
b1000 !#
b1010000000000000110010011 M
b1010000000000000110010011 U"
b1010000000000000110010011 c"
b1010000000000000110010011 %#
b1111111111111111111111 k
b10 t
b1010 Z
b1010 h
b1010 <"
b1010 -"
b10 [
b10 g
b10 ;"
b10 ,"
b1100 )
b1100 H#
b1100 M#
b1100 S#
b1100 q#
b1010000000000000110010011 7
b1010000000000000110010011 P"
b1010000000000000110010011 F#
b1010000000000000110010011 J#
b1010000000000000110010011 P#
b1010000000000000110010011 R#
b1000 8
b1000 Q"
b1000 E#
b1000 I#
b1000 L#
b1000 N#
b101000000000000100010011 `
b101000000000000100010011 c
b101000000000000100010011 6"
b101000000000000100010011 A
b101000000000000100010011 #"
b101000000000000100010011 d"
b101000000000000100010011 |"
b101000000000000100010011 &#
b101000000000000100010011 '#
b100 a
b100 b
b100 5"
b100 B
b100 $"
b100 b"
b100 {"
b100 "#
b100 ##
b10 :
b10 o
b10 r"
b10 t"
b10 B#
b10 C#
0}
0{
0|
b1010 ]
b1010 ~
b1010 9"
b1010 =
b1010 w
b1010 l"
b1010 x"
b1010 2#
b1010 3#
1!
#50000
0!
#55000
bx K
bx X"
bx e"
bx )#
bx E
bx ^"
bx o"
bx =#
bx G
bx \"
bx m"
bx 9#
b11 ^
b11 !"
b11 8"
b0 _
b0 ""
b0 7"
bx '
bx G"
bx w#
bx (
bx H"
bx v#
b11 F
b11 ]"
b11 s#
b10 H
b10 ["
b10 r#
b100 D
b100 _"
b100 q"
b100 A#
b111111111111 k
b11 t
b10100 Z
b10100 h
b10100 <"
b10100 -"
b11 [
b11 g
b11 ;"
b11 ,"
b11 E"
b10 F"
b100 I"
b110011 J"
bx O"
xM"
xL"
xN"
bx I
bx Z"
bx i"
bx 1#
b1100 N
b1100 T"
b1100 a"
b1100 !#
b1100010000001000110011 M
b1100010000001000110011 U"
b1100010000001000110011 c"
b1100010000001000110011 %#
b1000000001000011000001010110011 6
b1000000001000011000001010110011 G#
b1000000001000011000001010110011 Q#
b1000000001000011000001010110011 T#
b10100 ]
b10100 ~
b10100 9"
b10100 =
b10100 w
b10100 l"
b10100 x"
b10100 2#
b10100 3#
b11 :
b11 o
b11 r"
b11 t"
b11 B#
b11 C#
b1000 a
b1000 b
b1000 5"
b1000 B
b1000 $"
b1000 b"
b1000 {"
b1000 "#
b1000 ##
b1010000000000000110010011 `
b1010000000000000110010011 c
b1010000000000000110010011 6"
b1010000000000000110010011 A
b1010000000000000110010011 #"
b1010000000000000110010011 d"
b1010000000000000110010011 |"
b1010000000000000110010011 &#
b1010000000000000110010011 '#
b1100 8
b1100 Q"
b1100 E#
b1100 I#
b1100 L#
b1100 N#
b1100010000001000110011 7
b1100010000001000110011 P"
b1100010000001000110011 F#
b1100010000001000110011 J#
b1100010000001000110011 P#
b1100010000001000110011 R#
b10000 )
b10000 H#
b10000 M#
b10000 S#
b10000 q#
1!
#60000
0!
