waveform.vcd
$date
	Wed Apr 23 11:02:09 2025
$end
$version
	Icarus Verilog
$end
$timescale
	1ps
$end
$scope module tb_tinyriscv $end
$var reg 1 ! clk $end
$var reg 1 " rst $end
$scope module uut $end
$var wire 1 ! clk $end
$var wire 1 " rst $end
$var wire 1 # rst_if_id_o $end
$var wire 32 $ regs_rdata2_o [31:0] $end
$var wire 32 % regs_rdata1_o [31:0] $end
$var wire 32 & pc_pc_o [31:0] $end
$var wire 1 ' jump_flag_o $end
$var wire 1 ( jump_flag $end
$var wire 32 ) jump_addr_o [31:0] $end
$var wire 32 * jump_addr [31:0] $end
$var wire 32 + inst_mem_inst_o [31:0] $end
$var wire 32 , if_inst_o [31:0] $end
$var wire 32 - if_inst_addr_o [31:0] $end
$var wire 1 . ie_reg_we_o $end
$var wire 5 / ie_reg_waddr_o [4:0] $end
$var wire 32 0 ie_reg2_rdata_o [31:0] $end
$var wire 32 1 ie_reg1_rdata_o [31:0] $end
$var wire 32 2 ie_op2_o [31:0] $end
$var wire 32 3 ie_op2_jump_o [31:0] $end
$var wire 32 4 ie_op1_o [31:0] $end
$var wire 32 5 ie_op1_jump_o [31:0] $end
$var wire 32 6 ie_inst_o [31:0] $end
$var wire 32 7 ie_inst_addr_o [31:0] $end
$var wire 1 8 id_reg_we_o $end
$var wire 5 9 id_reg_waddr_o [4:0] $end
$var wire 32 : id_reg2_rdata_o [31:0] $end
$var wire 5 ; id_reg2_raddr_o [4:0] $end
$var wire 32 < id_reg1_rdata_o [31:0] $end
$var wire 5 = id_reg1_raddr_o [4:0] $end
$var wire 32 > id_op2_o [31:0] $end
$var wire 32 ? id_op2_jump_o [31:0] $end
$var wire 32 @ id_op1_o [31:0] $end
$var wire 32 A id_op1_jump_o [31:0] $end
$var wire 32 B id_inst_o [31:0] $end
$var wire 32 C id_inst_addr_o [31:0] $end
$var wire 1 D ex_reg_we_o $end
$var wire 32 E ex_reg_wdata_o [31:0] $end
$var wire 5 F ex_reg_waddr_o [4:0] $end
$var wire 1 G ex_mem_we_o $end
$var wire 32 H ex_mem_wdata_o [31:0] $end
$var wire 32 I ex_mem_waddr_o [31:0] $end
$var wire 1 J ex_mem_req_o $end
$var wire 32 K ex_mem_raddr_o [31:0] $end
$var wire 32 L data_mem_rdata_o [31:0] $end
$scope module u_ctrl $end
$var wire 1 " rst $end
$var wire 1 ( jump_flag_i $end
$var wire 32 M jump_addr_i [31:0] $end
$var reg 32 N jump_addr_o [31:0] $end
$var reg 1 ' jump_flag_o $end
$var reg 1 # rst_if_id $end
$upscope $end
$scope module u_data_mem $end
$var wire 1 ! clk $end
$var wire 1 " rst $end
$var wire 1 G mem_we_i $end
$var wire 32 O mem_wdata_i [31:0] $end
$var wire 32 P mem_waddr_i [31:0] $end
$var wire 1 J mem_req_i $end
$var wire 32 Q mem_raddr_i [31:0] $end
$var reg 32 R mem_rdata_o [31:0] $end
$upscope $end
$scope module u_ex $end
$var wire 32 S csr_rdata_i [31:0] $end
$var wire 32 T csr_waddr_i [31:0] $end
$var wire 32 U csr_waddr_o [31:0] $end
$var wire 1 V csr_we_i $end
$var wire 1 W div_busy_i $end
$var wire 1 X div_ready_i $end
$var wire 5 Y div_reg_waddr_i [4:0] $end
$var wire 32 Z div_result_i [31:0] $end
$var wire 1 [ hold_flag_o $end
$var wire 32 \ int_addr_i [31:0] $end
$var wire 1 ] int_assert_i $end
$var wire 1 ^ jump_flag_o $end
$var wire 32 _ mem_rdata_i [31:0] $end
$var wire 5 ` reg_waddr_o [4:0] $end
$var wire 32 a reg_wdata_o [31:0] $end
$var wire 1 " rst $end
$var wire 5 b uimm [4:0] $end
$var wire 32 c sri_shift_mask [31:0] $end
$var wire 32 d sri_shift [31:0] $end
$var wire 32 e sr_shift_mask [31:0] $end
$var wire 32 f sr_shift [31:0] $end
$var wire 1 D reg_we_o $end
$var wire 1 . reg_we_i $end
$var wire 5 g reg_waddr_i [4:0] $end
$var wire 32 h reg2_rdata_i [31:0] $end
$var wire 32 i reg2_data_invert [31:0] $end
$var wire 32 j reg1_rdata_i [31:0] $end
$var wire 32 k reg1_data_invert [31:0] $end
$var wire 5 l rd [4:0] $end
$var wire 7 m opcode [6:0] $end
$var wire 32 n op2_jump_i [31:0] $end
$var wire 32 o op2_i [31:0] $end
$var wire 32 p op1_jump_i [31:0] $end
$var wire 32 q op1_jump_add_op2_jump_res [31:0] $end
$var wire 32 r op1_i [31:0] $end
$var wire 1 s op1_ge_op2_unsigned $end
$var wire 1 t op1_ge_op2_signed $end
$var wire 1 u op1_eq_op2 $end
$var wire 32 v op1_add_op2_res [31:0] $end
$var wire 64 w mul_temp_invert [63:0] $end
$var wire 64 x mul_temp [63:0] $end
$var wire 1 G mem_we_o $end
$var wire 2 y mem_waddr_index [1:0] $end
$var wire 1 J mem_req_o $end
$var wire 2 z mem_raddr_index [1:0] $end
$var wire 32 { jump_addr_o [31:0] $end
$var wire 32 | inst_i [31:0] $end
$var wire 32 } inst_addr_i [31:0] $end
$var wire 7 ~ funct7 [6:0] $end
$var wire 3 !" funct3 [2:0] $end
$var wire 1 "" div_start_o $end
$var wire 1 #" csr_we_o $end
$var reg 32 $" csr_wdata_o [31:0] $end
$var reg 32 %" div_dividend_o [31:0] $end
$var reg 32 &" div_divisor_o [31:0] $end
$var reg 1 '" div_hold_flag $end
$var reg 32 (" div_jump_addr [31:0] $end
$var reg 1 )" div_jump_flag $end
$var reg 3 *" div_op_o [2:0] $end
$var reg 5 +" div_reg_waddr_o [4:0] $end
$var reg 1 ," div_start $end
$var reg 5 -" div_waddr [4:0] $end
$var reg 32 ." div_wdata [31:0] $end
$var reg 1 /" div_we $end
$var reg 1 0" hold_flag $end
$var reg 32 1" jump_addr [31:0] $end
$var reg 1 2" jump_flag $end
$var reg 32 3" mem_raddr_o [31:0] $end
$var reg 1 4" mem_req $end
$var reg 32 5" mem_waddr_o [31:0] $end
$var reg 32 6" mem_wdata_o [31:0] $end
$var reg 1 7" mem_we $end
$var reg 32 8" mul_op1 [31:0] $end
$var reg 32 9" mul_op2 [31:0] $end
$var reg 5 :" reg_waddr [4:0] $end
$var reg 32 ;" reg_wdata [31:0] $end
$var reg 1 <" reg_we $end
$upscope $end
$scope module u_id $end
$var wire 1 " rst $end
$var wire 5 =" rs2 [4:0] $end
$var wire 5 >" rs1 [4:0] $end
$var wire 32 ?" reg2_rdata_i [31:0] $end
$var wire 32 @" reg1_rdata_i [31:0] $end
$var wire 5 A" rd [4:0] $end
$var wire 7 B" opcode [6:0] $end
$var wire 32 C" op1_jump_add_op2_jump_res [31:0] $end
$var wire 1 D" op1_ge_op2_unsigned $end
$var wire 1 E" op1_ge_op2_signed $end
$var wire 1 F" op1_eq_op2 $end
$var wire 32 G" op1_add_op2_res [31:0] $end
$var wire 32 H" inst_i [31:0] $end
$var wire 32 I" inst_addr_i [31:0] $end
$var wire 7 J" funct7 [6:0] $end
$var wire 3 K" funct3 [2:0] $end
$var reg 32 L" inst_addr_o [31:0] $end
$var reg 32 M" inst_o [31:0] $end
$var reg 32 N" jump_addr [31:0] $end
$var reg 1 ( jump_flag $end
$var reg 32 O" op1_jump_o [31:0] $end
$var reg 32 P" op1_o [31:0] $end
$var reg 32 Q" op2_jump_o [31:0] $end
$var reg 32 R" op2_o [31:0] $end
$var reg 5 S" reg1_raddr_o [4:0] $end
$var reg 32 T" reg1_rdata_o [31:0] $end
$var reg 5 U" reg2_raddr_o [4:0] $end
$var reg 32 V" reg2_rdata_o [31:0] $end
$var reg 5 W" reg_waddr_o [4:0] $end
$var reg 1 8 reg_we_o $end
$upscope $end
$scope module u_id_ex $end
$var wire 1 ! clk $end
$var wire 3 X" hold_flag_i [2:0] $end
$var wire 32 Y" inst_addr_i [31:0] $end
$var wire 32 Z" inst_addr_o [31:0] $end
$var wire 32 [" inst_i [31:0] $end
$var wire 32 \" inst_o [31:0] $end
$var wire 32 ]" op1_i [31:0] $end
$var wire 32 ^" op1_jump_i [31:0] $end
$var wire 32 _" op1_jump_o [31:0] $end
$var wire 32 `" op1_o [31:0] $end
$var wire 32 a" op2_i [31:0] $end
$var wire 32 b" op2_jump_i [31:0] $end
$var wire 32 c" op2_jump_o [31:0] $end
$var wire 32 d" op2_o [31:0] $end
$var wire 32 e" reg1_rdata_i [31:0] $end
$var wire 32 f" reg1_rdata_o [31:0] $end
$var wire 32 g" reg2_rdata_i [31:0] $end
$var wire 32 h" reg2_rdata_o [31:0] $end
$var wire 5 i" reg_waddr_i [4:0] $end
$var wire 5 j" reg_waddr_o [4:0] $end
$var wire 1 8 reg_we_i $end
$var wire 1 . reg_we_o $end
$var wire 1 " rst $end
$var wire 1 k" reg_we $end
$var wire 5 l" reg_waddr [4:0] $end
$var wire 32 m" reg2_rdata [31:0] $end
$var wire 32 n" reg1_rdata [31:0] $end
$var wire 32 o" op2_jump [31:0] $end
$var wire 32 p" op2 [31:0] $end
$var wire 32 q" op1_jump [31:0] $end
$var wire 32 r" op1 [31:0] $end
$var wire 32 s" inst_addr [31:0] $end
$var wire 32 t" inst [31:0] $end
$var wire 1 u" hold_en $end
$scope module inst_addr_ff $end
$var wire 1 ! clk $end
$var wire 32 v" def_val [31:0] $end
$var wire 32 w" din [31:0] $end
$var wire 1 u" hold_en $end
$var wire 1 " rst $end
$var wire 32 x" qout [31:0] $end
$var reg 32 y" qout_r [31:0] $end
$upscope $end
$scope module inst_ff $end
$var wire 1 ! clk $end
$var wire 32 z" def_val [31:0] $end
$var wire 32 {" din [31:0] $end
$var wire 1 u" hold_en $end
$var wire 1 " rst $end
$var wire 32 |" qout [31:0] $end
$var reg 32 }" qout_r [31:0] $end
$upscope $end
$scope module op1_ff $end
$var wire 1 ! clk $end
$var wire 32 ~" def_val [31:0] $end
$var wire 32 !# din [31:0] $end
$var wire 1 u" hold_en $end
$var wire 1 " rst $end
$var wire 32 "# qout [31:0] $end
$var reg 32 ## qout_r [31:0] $end
$upscope $end
$scope module op1_jump_ff $end
$var wire 1 ! clk $end
$var wire 32 $# def_val [31:0] $end
$var wire 32 %# din [31:0] $end
$var wire 1 u" hold_en $end
$var wire 1 " rst $end
$var wire 32 &# qout [31:0] $end
$var reg 32 '# qout_r [31:0] $end
$upscope $end
$scope module op2_ff $end
$var wire 1 ! clk $end
$var wire 32 (# def_val [31:0] $end
$var wire 32 )# din [31:0] $end
$var wire 1 u" hold_en $end
$var wire 1 " rst $end
$var wire 32 *# qout [31:0] $end
$var reg 32 +# qout_r [31:0] $end
$upscope $end
$scope module op2_jump_ff $end
$var wire 1 ! clk $end
$var wire 32 ,# def_val [31:0] $end
$var wire 32 -# din [31:0] $end
$var wire 1 u" hold_en $end
$var wire 1 " rst $end
$var wire 32 .# qout [31:0] $end
$var reg 32 /# qout_r [31:0] $end
$upscope $end
$scope module reg1_rdata_ff $end
$var wire 1 ! clk $end
$var wire 32 0# def_val [31:0] $end
$var wire 32 1# din [31:0] $end
$var wire 1 u" hold_en $end
$var wire 1 " rst $end
$var wire 32 2# qout [31:0] $end
$var reg 32 3# qout_r [31:0] $end
$upscope $end
$scope module reg2_rdata_ff $end
$var wire 1 ! clk $end
$var wire 32 4# def_val [31:0] $end
$var wire 32 5# din [31:0] $end
$var wire 1 u" hold_en $end
$var wire 1 " rst $end
$var wire 32 6# qout [31:0] $end
$var reg 32 7# qout_r [31:0] $end
$upscope $end
$scope module reg_waddr_ff $end
$var wire 1 ! clk $end
$var wire 5 8# def_val [4:0] $end
$var wire 5 9# din [4:0] $end
$var wire 1 u" hold_en $end
$var wire 1 " rst $end
$var wire 5 :# qout [4:0] $end
$var reg 5 ;# qout_r [4:0] $end
$upscope $end
$scope module reg_we_ff $end
$var wire 1 ! clk $end
$var wire 1 <# def_val $end
$var wire 1 8 din $end
$var wire 1 u" hold_en $end
$var wire 1 " rst $end
$var wire 1 k" qout $end
$var reg 1 k" qout_r $end
$upscope $end
$upscope $end
$scope module u_if_id $end
$var wire 1 ! clk $end
$var wire 32 =# inst_addr_o [31:0] $end
$var wire 32 ># inst_o [31:0] $end
$var wire 1 " rst $end
$var wire 1 # rst_if_id_i $end
$var wire 32 ?# inst_i [31:0] $end
$var wire 32 @# inst_addr_i [31:0] $end
$var wire 32 A# inst_addr [31:0] $end
$var wire 32 B# inst [31:0] $end
$scope module inst_addr_ff $end
$var wire 1 ! clk $end
$var wire 32 C# def_val [31:0] $end
$var wire 1 # hold_en $end
$var wire 1 " rst $end
$var wire 32 D# qout [31:0] $end
$var wire 32 E# din [31:0] $end
$var reg 32 F# qout_r [31:0] $end
$upscope $end
$scope module inst_ff $end
$var wire 1 ! clk $end
$var wire 32 G# def_val [31:0] $end
$var wire 1 # hold_en $end
$var wire 1 " rst $end
$var wire 32 H# qout [31:0] $end
$var wire 32 I# din [31:0] $end
$var reg 32 J# qout_r [31:0] $end
$upscope $end
$upscope $end
$scope module u_instruction_mem $end
$var wire 32 K# address_i [31:0] $end
$var reg 32 L# instruction_o [31:0] $end
$upscope $end
$scope module u_pc_reg $end
$var wire 1 ! clk $end
$var wire 3 M# hold_flag_i [2:0] $end
$var wire 32 N# jump_addr_i [31:0] $end
$var wire 1 ' jump_flag_i $end
$var wire 1 " rst $end
$var reg 32 O# pc_o [31:0] $end
$upscope $end
$scope module u_regs $end
$var wire 1 ! clk $end
$var wire 5 P# raddr1_i [4:0] $end
$var wire 5 Q# raddr2_i [4:0] $end
$var wire 1 " rst $end
$var wire 5 R# waddr_i [4:0] $end
$var wire 32 S# wdata_i [31:0] $end
$var wire 1 D we_i $end
$var reg 32 T# rdata1_o [31:0] $end
$var reg 32 U# rdata2_o [31:0] $end
$scope begin reg_debug[0] $end
$var wire 32 V# reg_i [31:0] $end
$upscope $end
$scope begin reg_debug[1] $end
$var wire 32 W# reg_i [31:0] $end
$upscope $end
$scope begin reg_debug[2] $end
$var wire 32 X# reg_i [31:0] $end
$upscope $end
$scope begin reg_debug[3] $end
$var wire 32 Y# reg_i [31:0] $end
$upscope $end
$scope begin reg_debug[4] $end
$var wire 32 Z# reg_i [31:0] $end
$upscope $end
$scope begin reg_debug[5] $end
$var wire 32 [# reg_i [31:0] $end
$upscope $end
$scope begin reg_debug[6] $end
$var wire 32 \# reg_i [31:0] $end
$upscope $end
$scope begin reg_debug[7] $end
$var wire 32 ]# reg_i [31:0] $end
$upscope $end
$scope begin reg_debug[8] $end
$var wire 32 ^# reg_i [31:0] $end
$upscope $end
$scope begin reg_debug[9] $end
$var wire 32 _# reg_i [31:0] $end
$upscope $end
$scope begin reg_debug[10] $end
$var wire 32 `# reg_i [31:0] $end
$upscope $end
$scope begin reg_debug[11] $end
$var wire 32 a# reg_i [31:0] $end
$upscope $end
$scope begin reg_debug[12] $end
$var wire 32 b# reg_i [31:0] $end
$upscope $end
$scope begin reg_debug[13] $end
$var wire 32 c# reg_i [31:0] $end
$upscope $end
$scope begin reg_debug[14] $end
$var wire 32 d# reg_i [31:0] $end
$upscope $end
$scope begin reg_debug[15] $end
$var wire 32 e# reg_i [31:0] $end
$upscope $end
$scope begin reg_debug[16] $end
$var wire 32 f# reg_i [31:0] $end
$upscope $end
$scope begin reg_debug[17] $end
$var wire 32 g# reg_i [31:0] $end
$upscope $end
$scope begin reg_debug[18] $end
$var wire 32 h# reg_i [31:0] $end
$upscope $end
$scope begin reg_debug[19] $end
$var wire 32 i# reg_i [31:0] $end
$upscope $end
$scope begin reg_debug[20] $end
$var wire 32 j# reg_i [31:0] $end
$upscope $end
$scope begin reg_debug[21] $end
$var wire 32 k# reg_i [31:0] $end
$upscope $end
$scope begin reg_debug[22] $end
$var wire 32 l# reg_i [31:0] $end
$upscope $end
$scope begin reg_debug[23] $end
$var wire 32 m# reg_i [31:0] $end
$upscope $end
$scope begin reg_debug[24] $end
$var wire 32 n# reg_i [31:0] $end
$upscope $end
$scope begin reg_debug[25] $end
$var wire 32 o# reg_i [31:0] $end
$upscope $end
$scope begin reg_debug[26] $end
$var wire 32 p# reg_i [31:0] $end
$upscope $end
$scope begin reg_debug[27] $end
$var wire 32 q# reg_i [31:0] $end
$upscope $end
$scope begin reg_debug[28] $end
$var wire 32 r# reg_i [31:0] $end
$upscope $end
$scope begin reg_debug[29] $end
$var wire 32 s# reg_i [31:0] $end
$upscope $end
$scope begin reg_debug[30] $end
$var wire 32 t# reg_i [31:0] $end
$upscope $end
$scope begin reg_debug[31] $end
$var wire 32 u# reg_i [31:0] $end
$upscope $end
$upscope $end
$upscope $end
$upscope $end
$enddefinitions $end
#0
$dumpvars
bx u#
bx t#
bx s#
bx r#
bx q#
bx p#
bx o#
bx n#
bx m#
bx l#
bx k#
bx j#
bx i#
bx h#
bx g#
bx f#
bx e#
bx d#
bx c#
bx b#
bx a#
bx `#
bx _#
bx ^#
bx ]#
bx \#
bx [#
bx Z#
bx Y#
bx X#
bx W#
bx V#
bx U#
bx T#
b0 S#
bx R#
bx Q#
bx P#
bx O#
bx N#
bz M#
bx L#
bx K#
bx J#
bx I#
bx H#
b1 G#
bx F#
bx E#
bx D#
b0 C#
bx B#
bx A#
bx @#
bx ?#
bx >#
bx =#
0<#
bx ;#
bx :#
bx 9#
b0 8#
bx 7#
bx 6#
bx 5#
b0 4#
bx 3#
bx 2#
bx 1#
b0 0#
bx /#
bx .#
bx -#
b0 ,#
bx +#
bx *#
bx )#
b0 (#
bx '#
bx &#
bx %#
b0 $#
bx ##
bx "#
bx !#
b0 ~"
bx }"
bx |"
bx {"
b1 z"
bx y"
bx x"
bx w"
b0 v"
xu"
bx t"
bx s"
bx r"
bx q"
bx p"
bx o"
bx n"
bx m"
bx l"
xk"
bx j"
bx i"
bx h"
bx g"
bx f"
bx e"
bx d"
bx c"
bx b"
bx a"
bx `"
bx _"
bx ^"
bx ]"
bx \"
bx ["
bx Z"
bx Y"
bz X"
bx W"
bx V"
bx U"
bx T"
bx S"
bx R"
bx Q"
bx P"
bx O"
bx N"
bx M"
bx L"
bx K"
bx J"
bx I"
bx H"
bx G"
xF"
xE"
xD"
bx C"
bx B"
bx A"
bx @"
bx ?"
bx >"
bx ="
x<"
b0 ;"
bx :"
bx 9"
bx 8"
07"
b0 6"
b0 5"
04"
b0 3"
02"
b0 1"
00"
0/"
b0 ."
b0 -"
0,"
bx +"
bx *"
0)"
b0 ("
0'"
bx &"
bx %"
b0 $"
z#"
0""
bx !"
bx ~
bx }
bx |
b0 {
bx z
bx y
bx x
bx w
bx v
xu
xt
xs
bx r
bx q
bx p
bx o
bx n
bx m
bx l
bx k
bx j
bx i
bx h
bx g
bx f
bx e
bx d
bx c
bx b
b0 a
bx `
b0 _
0^
0]
b0 \
0[
bz Z
bz Y
zX
zW
zV
bz U
bz T
bz S
b0 R
b0 Q
b0 P
b0 O
bx N
bx M
b0 L
b0 K
0J
b0 I
b0 H
0G
bx F
b0 E
xD
bx C
bx B
bx A
bx @
bx ?
bx >
bx =
bx <
bx ;
bx :
bx 9
x8
bx 7
bx 6
bx 5
bx 4
bx 3
bx 2
bx 1
bx 0
bx /
x.
bx -
bx ,
bx +
bx *
bx )
x(
x'
bx &
bx %
bx $
x#
0"
0!
$end
#5000
0#
0'
b0 )
b0 N
b0 N#
b0 y
b0 z
0D
b0 :
b0 V"
b0 g"
b0 5#
b0 <
b0 T"
b0 e"
b0 1#
b0 $
b0 ?"
b0 U#
b0 %
b0 @"
b0 T#
b0 *
b0 M
b0 N"
0(
b0 *"
b0 w
b0 F
b0 `
b0 R#
b10010011 +
b10010011 ?#
b10010011 I#
b10010011 L#
b0 ="
b0 >"
b0 A"
b0 J"
b0 K"
b1 B"
b0 ;
b0 U"
b0 Q#
b0 =
b0 S"
b0 P#
b0 9
b0 W"
b0 i"
b0 9#
08
b0 C"
b0 ?
b0 Q"
b0 b"
b0 -#
b0 A
b0 O"
b0 ^"
b0 %#
b0 >
b0 R"
b0 a"
b0 )#
b0 C
b0 L"
b0 Y"
b0 w"
b1 B
b1 M"
b1 ["
b1 {"
b11111111111111111111111111111111 c
b0 d
b0 b
b0 l
b0 ~
b0 !"
b1 m
b0 k
b11111111111111111111111111111111 e
b0 f
b0 i
b0 x
b0 9"
b0 8"
b0 :"
0<"
b0 +"
b0 &"
b0 %"
b0 &
b0 @#
b0 E#
b0 K#
b0 O#
b1 ,
b1 H"
b1 >#
b1 B#
b1 H#
b1 J#
b0 -
b0 I"
b0 =#
b0 A#
b0 D#
b0 F#
b1 6
b1 |
b1 \"
b1 t"
b1 |"
b1 }"
b0 7
b0 }
b0 Z"
b0 s"
b0 x"
b0 y"
0.
0k"
b0 /
b0 g
b0 j"
b0 l"
b0 :#
b0 ;#
b0 1
b0 j
b0 f"
b0 n"
b0 2#
b0 3#
b0 0
b0 h
b0 h"
b0 m"
b0 6#
b0 7#
1u
1s
1t
b0 v
b0 4
b0 r
b0 `"
b0 r"
b0 "#
b0 ##
b0 2
b0 o
b0 d"
b0 p"
b0 *#
b0 +#
b0 q
b0 5
b0 p
b0 _"
b0 q"
b0 &#
b0 '#
b0 3
b0 n
b0 c"
b0 o"
b0 .#
b0 /#
1!
#10000
0!
#15000
1!
#20000
0!
1"
#25000
b0 G"
1E"
1D"
1F"
b0 @
b0 P"
b0 ]"
b0 !#
b1 9
b1 W"
b1 i"
b1 9#
18
b101000000000000100010011 +
b101000000000000100010011 ?#
b101000000000000100010011 I#
b101000000000000100010011 L#
b1 A"
b10011 B"
b10010011 B
b10010011 M"
b10010011 ["
b10010011 {"
b100 &
b100 @#
b100 E#
b100 K#
b100 O#
b10010011 ,
b10010011 H"
b10010011 >#
b10010011 B#
b10010011 H#
b10010011 J#
xu
xs
xt
bx v
bx 4
bx r
bx `"
bx r"
bx "#
bx ##
1!
#30000
0!
#35000
b1 y
1D
b1 F
b1 `
b1 R#
b10 9
b10 W"
b10 i"
b10 9#
b1 +"
b1 l
b10011 m
b1 :"
1<"
b1010 ="
b10 A"
b1010 G"
0E"
0D"
0F"
b1010 >
b1010 R"
b1010 a"
b1010 )#
b100 C
b100 L"
b100 Y"
b100 w"
b101000000000000100010011 B
b101000000000000100010011 M"
b101000000000000100010011 ["
b101000000000000100010011 {"
b1010000000000000110010011 +
b1010000000000000110010011 ?#
b1010000000000000110010011 I#
b1010000000000000110010011 L#
1u
1s
1t
b0 v
b0 4
b0 r
b0 `"
b0 r"
b0 "#
b0 ##
b1 /
b1 g
b1 j"
b1 l"
b1 :#
b1 ;#
1.
1k"
b10010011 6
b10010011 |
b10010011 \"
b10010011 t"
b10010011 |"
b10010011 }"
b100 -
b100 I"
b100 =#
b100 A#
b100 D#
b100 F#
b101000000000000100010011 ,
b101000000000000100010011 H"
b101000000000000100010011 >#
b101000000000000100010011 B#
b101000000000000100010011 H#
b101000000000000100010011 J#
b1000 &
b1000 @#
b1000 E#
b1000 K#
b1000 O#
1!
#40000
0!
#45000
b10 y
b10 z
b11 9
b11 W"
b11 i"
b11 9#
b1010 E
b1010 a
b1010 S#
b10 F
b10 `
b10 R#
b1100010000001000110011 +
b1100010000001000110011 ?#
b1100010000001000110011 I#
b1100010000001000110011 L#
b10100 ="
b11 A"
b10100 G"
0E"
0D"
0F"
b10100 >
b10100 R"
b10100 a"
b10100 )#
b1000 C
b1000 L"
b1000 Y"
b1000 w"
b1010000000000000110010011 B
b1010000000000000110010011 M"
b1010000000000000110010011 ["
b1010000000000000110010011 {"
b1111111111111111111111 c
b10 l
b10 +"
b1010 ;"
b10 :"
b1100 &
b1100 @#
b1100 E#
b1100 K#
b1100 O#
b0 W#
b1010000000000000110010011 ,
b1010000000000000110010011 H"
b1010000000000000110010011 >#
b1010000000000000110010011 B#
b1010000000000000110010011 H#
b1010000000000000110010011 J#
b1000 -
b1000 I"
b1000 =#
b1000 A#
b1000 D#
b1000 F#
b101000000000000100010011 6
b101000000000000100010011 |
b101000000000000100010011 \"
b101000000000000100010011 t"
b101000000000000100010011 |"
b101000000000000100010011 }"
b100 7
b100 }
b100 Z"
b100 s"
b100 x"
b100 y"
b10 /
b10 g
b10 j"
b10 l"
b10 :#
b10 ;#
0u
0s
0t
b1010 v
b1010 2
b1010 o
b1010 d"
b1010 p"
b1010 *#
b1010 +#
1!
#50000
0!
#55000
b1010 @
b1010 P"
b1010 ]"
b1010 !#
b10100 :
b10100 V"
b10100 g"
b10100 5#
b1010 <
b1010 T"
b1010 e"
b1010 1#
b11 y
b0 z
b10100 $
b10100 ?"
b10100 U#
b1010 %
b1010 @"
b1010 T#
b10100 E
b10100 a
b10100 S#
b11 F
b11 `
b11 R#
b11 ;
b11 U"
b11 Q#
b10 =
b10 S"
b10 P#
b100 9
b100 W"
b100 i"
b100 9#
b11 +"
b111111111111 c
b11 l
b10100 ;"
b11 :"
b11 ="
b10 >"
b100 A"
b110011 B"
b11110 G"
0E"
0D"
0F"
b10100 >
b10100 R"
b10100 a"
b10100 )#
b1100 C
b1100 L"
b1100 Y"
b1100 w"
b1100010000001000110011 B
b1100010000001000110011 M"
b1100010000001000110011 ["
b1100010000001000110011 {"
b1000000001000011000001010110011 +
b1000000001000011000001010110011 ?#
b1000000001000011000001010110011 I#
b1000000001000011000001010110011 L#
b10100 v
b10100 2
b10100 o
b10100 d"
b10100 p"
b10100 *#
b10100 +#
b11 /
b11 g
b11 j"
b11 l"
b11 :#
b11 ;#
b1000 7
b1000 }
b1000 Z"
b1000 s"
b1000 x"
b1000 y"
b1010000000000000110010011 6
b1010000000000000110010011 |
b1010000000000000110010011 \"
b1010000000000000110010011 t"
b1010000000000000110010011 |"
b1010000000000000110010011 }"
b1100 -
b1100 I"
b1100 =#
b1100 A#
b1100 D#
b1100 F#
b1100010000001000110011 ,
b1100010000001000110011 H"
b1100010000001000110011 >#
b1100010000001000110011 B#
b1100010000001000110011 H#
b1100010000001000110011 J#
b1010 X#
b10000 &
b10000 @#
b10000 E#
b10000 K#
b10000 O#
1!
#60000
0!
#65000
b10100 @
b10100 P"
b10100 ]"
b10100 !#
b1010 :
b1010 V"
b1010 g"
b1010 5#
b10100 <
b10100 T"
b10100 e"
b10100 1#
b1010 $
b1010 ?"
b1010 U#
b10100 %
b10100 @"
b10100 T#
b10 ;
b10 U"
b10 Q#
b11 =
b11 S"
b11 P#
b101 9
b101 W"
b101 i"
b101 9#
b10 y
b1 z
b1111111111111111111111111111111111111111111111111111111100111000 w
b11110 E
b11110 a
b11110 S#
b100 F
b100 `
b100 R#
b10001001100110011 +
b10001001100110011 ?#
b10001001100110011 I#
b10001001100110011 L#
b10 ="
b11 >"
b101 A"
b100000 J"
b11110 G"
1E"
1D"
b1010 >
b1010 R"
b1010 a"
b1010 )#
b10000 C
b10000 L"
b10000 Y"
b10000 w"
b1000000001000011000001010110011 B
b1000000001000011000001010110011 M"
b1000000001000011000001010110011 ["
b1000000001000011000001010110011 {"
b11111111111111111111111111111 c
b1 d
b10 b
b100 l
b110011 m
b11111111111111111111111111110110 k
b111111111111 e
b11111111111111111111111111101100 i
b100 +"
b10100 &"
b1010 %"
b11001000 x
b10100 9"
b1010 8"
b11110 ;"
b100 :"
b10100 &
b10100 @#
b10100 E#
b10100 K#
b10100 O#
b10100 Y#
b1000000001000011000001010110011 ,
b1000000001000011000001010110011 H"
b1000000001000011000001010110011 >#
b1000000001000011000001010110011 B#
b1000000001000011000001010110011 H#
b1000000001000011000001010110011 J#
b10000 -
b10000 I"
b10000 =#
b10000 A#
b10000 D#
b10000 F#
b1100010000001000110011 6
b1100010000001000110011 |
b1100010000001000110011 \"
b1100010000001000110011 t"
b1100010000001000110011 |"
b1100010000001000110011 }"
b1100 7
b1100 }
b1100 Z"
b1100 s"
b1100 x"
b1100 y"
b100 /
b100 g
b100 j"
b100 l"
b100 :#
b100 ;#
b0 f
b1010 1
b1010 j
b1010 f"
b1010 n"
b1010 2#
b1010 3#
b10100 0
b10100 h
b10100 h"
b10100 m"
b10100 6#
b10100 7#
b11110 v
b1010 4
b1010 r
b1010 `"
b1010 r"
b1010 "#
b1010 ##
1!
#70000
0!
